<svg version="1.1" xmlns="http://www.w3.org/2000/svg" width="16" height="16" viewBox="0 0 64 64">
<title>envelope</title>
<path d="M64 25.357v28.357c0 3.143-2.571 5.714-5.714 5.714h-52.571c-3.143 0-5.714-2.571-5.714-5.714v-28.357c1.071 1.179 2.286 2.214 3.607 3.107 5.929 4.036 11.929 8.071 17.75 12.321 3 2.214 6.714 4.929 10.607 4.929h0.071c3.893 0 7.607-2.714 10.607-4.929 5.821-4.214 11.821-8.286 17.786-12.321 1.286-0.893 2.5-1.929 3.571-3.107zM64 14.857c0 4-2.964 7.607-6.107 9.786-5.571 3.857-11.179 7.714-16.714 11.607-2.321 1.607-6.25 4.893-9.143 4.893h-0.071c-2.893 0-6.821-3.286-9.143-4.893-5.536-3.893-11.143-7.75-16.679-11.607-2.536-1.714-6.143-5.75-6.143-9 0-3.5 1.893-6.5 5.714-6.5h52.571c3.107 0 5.714 2.571 5.714 5.714z"></path>
</svg>
