<svg version="1.1" xmlns="http://www.w3.org/2000/svg" width="16" height="16" viewBox="0 0 55 64">
<title>twitter-square</title>
<path d="M45.714 21.786c-1.357 0.607-2.786 1-4.321 1.214 1.571-0.929 2.75-2.429 3.321-4.179-1.464 0.857-3.071 1.5-4.786 1.821-1.357-1.464-3.321-2.357-5.464-2.357-4.143 0-7.5 3.357-7.5 7.5 0 0.571 0.036 1.179 0.179 1.714-6.25-0.321-11.786-3.286-15.5-7.857-0.643 1.107-1.036 2.429-1.036 3.786 0 2.607 1.214 4.893 3.25 6.25-1.25-0.036-2.429-0.393-3.571-0.929v0.071c0 3.643 2.75 6.679 6.179 7.357-0.643 0.179-1.143 0.286-1.821 0.286-0.464 0-0.929-0.071-1.393-0.143 0.964 2.964 3.714 5.143 7 5.214-2.571 2-5.786 3.214-9.321 3.214-0.607 0-1.214-0.036-1.786-0.107 3.321 2.107 7.25 3.357 11.5 3.357 13.786 0 21.357-11.429 21.357-21.357 0-0.321 0-0.643-0.036-0.964 1.464-1.036 2.75-2.357 3.75-3.893zM54.857 14.857v34.286c0 5.679-4.607 10.286-10.286 10.286h-34.286c-5.679 0-10.286-4.607-10.286-10.286v-34.286c0-5.679 4.607-10.286 10.286-10.286h34.286c5.679 0 10.286 4.607 10.286 10.286z"></path>
</svg>
